{
  "groupNames": {
    "0": "PROD",
    "1": "DEBC",
    "2": "CORR",
    "3": "PESS",
    "4": "AMRT"
  },
  "defaultOptions": {
    "PROD": "CREDFLEX",
    "DEBC": "S",    
    "CORR": "PÓS-FXADO",
    "PESS": "PESSOA FÍSICA",
    "AMRT": "SAC"
  },
  "options": {
    "DEBC": [
      "S",
      "N"
    ],
    "CORR": [
      "PÓS-FIXADO",
      "PRÉ-FIXADO"
    ],
    "AMRT": [
      "PRICE",
      "SAC"
    ],
    "PESS": [
      "PESSOA FÍSICA",
      "PESSOA JURÍDICA"
    ],
    "PROD": [
      "CREDFLEX",
      "CREDCASA"
    ]
  },
  "selGroups": {
    "DEBC": {
      "type": "switch",
      "cols": "2",
      "label": "Déb. Conta",
      "options": [
        "S",
        "N"
      ],
      "selectors": {
        "S": [
          "1DS",
          "5DS",
          "4DS",
          "3DS"
        ],
        "N": [
          "2DN",
          "4DN"
        ]
      }
    },
    "CORR": {
      "type": "btn-group",
      "cols": "2",
      "options": [
        "PÓS-FIXADO",
        "PRÉ-FIXADO"
      ],
      "selectors": {
        "PÓS-FIXADO": [
          "ADO",
          "EDO",
          "POV",
          "POF",
          "ENO",
          "ANO"
        ],
        "PRÉ-FIXADO": [
          "EDE",
          "ENE"
        ]
      }
    },
    "AMRT": {
      "type": "btn-group",
      "cols": "2",
      "options": [
        "PRICE",
        "SAC"
      ],
      "selectors": {
        "PRICE": [
          "A45",
          "A13",
          "A49",
          "A05"
        ],
        "SAC": [
          "A20",
          "R10",
          "A44",
          "A26",
          "A18",
          "A50",
          "R07",
          "A02",
          "A10",
          "A28"
        ]
      }
    },
    "PESS": {
      "type": "btn-group",
      "cols": "2",
      "options": [
        "PESSOA FÍSICA",
        "PESSOA JURÍDICA"
      ],
      "selectors": {
        "PESSOA FÍSICA": [
          "P15",
          "PF4",
          "P16",
          "PF3",
          "PF1",
          "PF2",
          "PF5",
          "PF7"
        ],
        "PESSOA JURÍDICA": [
          "PJY",
          "PJ5",
          "PJS",
          "P11",
          "PJ7",
          "P12"
        ]
      }
    },
    "PROD": {
      "type": "btn-group",
      "cols": "1",
      "options": [
        "CREDFLEX",
        "CREDCASA"
      ],
      "selectors": {
        "CREDFLEX": [
          "CRE"
        ],
        "CREDCASA": [
          "CRA"
        ]
      }
    }
  },
  "operations": {
    "252": {
      "id": "252",
      "group": "OPER",
      "name": "252 - CREDCASA POS IPCA 1% SAC - 240",
      "level": 6,
      "path": "ACI.CRA.3DS.ADO.PF5.A18.252",
      "type": "list",
      "rules": {
        "imovelMax": 20000000,
        "valorMin": 50000,
        "valorMax": 15000000,
        "prazoMin": 24,
        "prazoMax": 240,
        "taxaJurosAnualNominal": 12,
        "valorMinPrestacao": 200,
        "idadeMax": 69,
        "idadePrazoMax": 74,
        "codSeguradora": 27,
        "codSeguradoraDFI": 27,
        "codApolice": 27,
        "codApoliceDFI": 27,
        "codSeguradora2": 27,
        "codSeguradora2DFI": 27,
        "codApolice2": 27,
        "codApolice2DFI": 27,
        "ltv": 70,
        "comprometimentoRenda": 30,
        "itbi": true,
        "iof": false,
        "indice": 204,
        "ltvTotalOperacao": true,
        "taxaAdministracao": 0
      }
    },
    "255": {
      "id": "255",
      "group": "OPER",
      "name": "255 - CREDCASA IPCA 1% PF IMOVEL COMERCIAL SAC - 240",
      "level": 6,
      "path": "ACI.CRA.3DS.ADO.PF5.A18.255",
      "type": "list",
      "rules": {
        "imovelMax": 15000000,
        "valorMin": 50000,
        "valorMax": 10000000,
        "prazoMin": 24,
        "prazoMax": 240,
        "taxaJurosAnualNominal": 12,
        "valorMinPrestacao": 200,
        "idadeMax": 69,
        "idadePrazoMax": 74,
        "codSeguradora": 27,
        "codSeguradoraDFI": 27,
        "codApolice": 27,
        "codApoliceDFI": 27,
        "codSeguradora2": 27,
        "codSeguradora2DFI": 27,
        "codApolice2": 27,
        "codApolice2DFI": 27,
        "ltv": 78,
        "comprometimentoRenda": 30,
        "itbi": true,
        "iof": true,
        "indice": 204,
        "ltvTotalOperacao": true,
        "taxaAdministracao": 0
      }
    },
    "283": {
      "id": "283",
      "group": "OPER",
      "name": "283 - CREDCASA DESLIGAMENTO POS IPCA 1% SAC 240",
      "level": 6,
      "path": "ACI.CRA.3DS.ADO.PF5.A18.283",
      "type": "list",
      "rules": {
        "imovelMax": 15000000,
        "valorMin": 50000,
        "valorMax": 10000000,
        "prazoMin": 24,
        "prazoMax": 240,
        "taxaJurosAnualNominal": 12,
        "valorMinPrestacao": 200,
        "idadeMax": 69,
        "idadePrazoMax": 74,
        "codSeguradora": 27,
        "codSeguradoraDFI": 27,
        "codApolice": 27,
        "codApoliceDFI": 27,
        "codSeguradora2": 27,
        "codSeguradora2DFI": 27,
        "codApolice2": 27,
        "codApolice2DFI": 27,
        "ltv": 70,
        "comprometimentoRenda": 30,
        "itbi": true,
        "iof": false,
        "indice": 204,
        "ltvTotalOperacao": true,
        "taxaAdministracao": 0
      }
    },
    "286": {
      "id": "286",
      "group": "OPER",
      "name": "286-CREDCASA DESLIGAMENTO IPCA 1%PF IMOVEL COMERCIAL SAC 240",
      "level": 6,
      "path": "ACI.CRA.3DS.ADO.PF5.A18.286",
      "type": "list",
      "rules": {
        "imovelMax": 15000000,
        "valorMin": 50000,
        "valorMax": 10000000,
        "prazoMin": 24,
        "prazoMax": 240,
        "taxaJurosAnualNominal": 12,
        "valorMinPrestacao": 200,
        "idadeMax": 69,
        "idadePrazoMax": 74,
        "codSeguradora": 27,
        "codSeguradoraDFI": 27,
        "codApolice": 27,
        "codApoliceDFI": 27,
        "codSeguradora2": 27,
        "codSeguradora2DFI": 27,
        "codApolice2": 27,
        "codApolice2DFI": 27,
        "ltv": 70,
        "comprometimentoRenda": 30,
        "itbi": true,
        "iof": true,
        "indice": 204,
        "ltvTotalOperacao": true,
        "taxaAdministracao": 0
      }
    },
    "320": {
      "id": "320",
      "group": "OPER",
      "name": "320 - CREDCASA POS IPCA 1,10% SAC 240",
      "level": 6,
      "path": "ACI.CRA.4DN.ANO.PF7.A26.320",
      "type": "list",
      "rules": {
        "imovelMax": 15000000,
        "valorMin": 50000,
        "valorMax": 10000000,
        "prazoMin": 24,
        "prazoMax": 240,
        "taxaJurosAnualNominal": 13.2,
        "valorMinPrestacao": 200,
        "idadeMax": 69,
        "idadePrazoMax": 74,
        "codSeguradora": 27,
        "codSeguradoraDFI": 27,
        "codApolice": 27,
        "codApoliceDFI": 27,
        "codSeguradora2": 27,
        "codSeguradora2DFI": 27,
        "codApolice2": 27,
        "codApolice2DFI": 27,
        "ltv": 70,
        "comprometimentoRenda": 30,
        "itbi": true,
        "iof": false,
        "indice": 204,
        "ltvTotalOperacao": true,
        "taxaAdministracao": 0
      }
    },
    "323": {
      "id": "323",
      "group": "OPER",
      "name": "323 - CREDCASA IPCA 1,10% PF IMOVEL COMERCIAL SAC 240",
      "level": 6,
      "path": "ACI.CRA.4DN.ANO.PF7.A26.323",
      "type": "list",
      "rules": {
        "imovelMax": 15000000,
        "valorMin": 50000,
        "valorMax": 10000000,
        "prazoMin": 24,
        "prazoMax": 240,
        "taxaJurosAnualNominal": 13.2,
        "valorMinPrestacao": 200,
        "idadeMax": 69,
        "idadePrazoMax": 74,
        "codSeguradora": 27,
        "codSeguradoraDFI": 27,
        "codApolice": 27,
        "codApoliceDFI": 27,
        "codSeguradora2": 27,
        "codSeguradora2DFI": 27,
        "codApolice2": 27,
        "codApolice2DFI": 27,
        "ltv": 70,
        "comprometimentoRenda": 30,
        "itbi": true,
        "iof": true,
        "indice": 204,
        "ltvTotalOperacao": true,
        "taxaAdministracao": 0
      }
    },
    "324": {
      "id": "324",
      "group": "OPER",
      "name": "324 - CREDCASA POS IPCA 1,10% SAC PJ 240",
      "level": 6,
      "path": "ACI.CRA.4DN.ANO.PJ7.A28.324",
      "type": "list",
      "rules": {
        "imovelMax": 15000000,
        "valorMin": 50000,
        "valorMax": 10000000,
        "prazoMin": 24,
        "prazoMax": 240,
        "taxaJurosAnualNominal": 13.2,
        "valorMinPrestacao": 200,
        "idadeMax": 69,
        "idadePrazoMax": 74,
        "codSeguradora": 27,
        "codSeguradoraDFI": 27,
        "codApolice": 27,
        "codApoliceDFI": 27,
        "codSeguradora2": 27,
        "codSeguradora2DFI": 27,
        "codApolice2": 27,
        "codApolice2DFI": 27,
        "ltv": 70,
        "comprometimentoRenda": 30,
        "itbi": true,
        "iof": true,
        "indice": 204,
        "ltvTotalOperacao": true,
        "taxaAdministracao": 25
      }
    },
    "338": {
      "id": "338",
      "group": "OPER",
      "name": "338 - CREDCASA DESLIGAMENTO POS IPCA 1,10% SAC 240",
      "level": 6,
      "path": "ACI.CRA.4DN.ANO.PF7.A26.338",
      "type": "list",
      "rules": {
        "imovelMax": 15000000,
        "valorMin": 50000,
        "valorMax": 10000000,
        "prazoMin": 24,
        "prazoMax": 240,
        "taxaJurosAnualNominal": 13.2,
        "valorMinPrestacao": 200,
        "idadeMax": 69,
        "idadePrazoMax": 74,
        "codSeguradora": 27,
        "codSeguradoraDFI": 27,
        "codApolice": 27,
        "codApoliceDFI": 27,
        "codSeguradora2": 27,
        "codSeguradora2DFI": 27,
        "codApolice2": 27,
        "codApolice2DFI": 27,
        "ltv": 70,
        "comprometimentoRenda": 30,
        "itbi": true,
        "iof": false,
        "indice": 204,
        "ltvTotalOperacao": true,
        "taxaAdministracao": 0
      }
    },
    "341": {
      "id": "341",
      "group": "OPER",
      "name": "341 - CREDCASA DESLIG IPCA 1,10% PF IMOVEL COMERCIAL SAC 240",
      "level": 6,
      "path": "ACI.CRA.4DN.ANO.PF7.A26.341",
      "type": "list",
      "rules": {
        "imovelMax": 15000000,
        "valorMin": 50000,
        "valorMax": 10000000,
        "prazoMin": 24,
        "prazoMax": 240,
        "taxaJurosAnualNominal": 13.2,
        "valorMinPrestacao": 200,
        "idadeMax": 69,
        "idadePrazoMax": 74,
        "codSeguradora": 27,
        "codSeguradoraDFI": 27,
        "codApolice": 27,
        "codApoliceDFI": 27,
        "codSeguradora2": 27,
        "codSeguradora2DFI": 27,
        "codApolice2": 27,
        "codApolice2DFI": 27,
        "ltv": 70,
        "comprometimentoRenda": 30,
        "itbi": true,
        "iof": true,
        "indice": 204,
        "ltvTotalOperacao": true,
        "taxaAdministracao": 0
      }
    },
    "342": {
      "id": "342",
      "group": "OPER",
      "name": "342 - CREDCASA DESLIGAMENTO POS IPCA 1,10% SAC PJ 240 ",
      "level": 6,
      "path": "ACI.CRA.4DN.ANO.PJ7.A28.342",
      "type": "list",
      "rules": {
        "imovelMax": 15000000,
        "valorMin": 50000,
        "valorMax": 10000000,
        "prazoMin": 24,
        "prazoMax": 240,
        "taxaJurosAnualNominal": 13.2,
        "valorMinPrestacao": 200,
        "idadeMax": 69,
        "idadePrazoMax": 74,
        "codSeguradora": 27,
        "codSeguradoraDFI": 27,
        "codApolice": 27,
        "codApoliceDFI": 27,
        "codSeguradora2": 27,
        "codSeguradora2DFI": 27,
        "codApolice2": 27,
        "codApolice2DFI": 27,
        "ltv": 70,
        "comprometimentoRenda": 30,
        "itbi": true,
        "iof": true,
        "indice": 204,
        "ltvTotalOperacao": true,
        "taxaAdministracao": 25
      }
    },
    "370": {
      "id": "370",
      "group": "OPER",
      "name": "370 - CREDFLEX PRE 1,98%",
      "level": 6,
      "path": "ACI.CRE.2DN.ENE.PF4.A13.370",
      "type": "list",
      "rules": {
        "imovelMax": 20000000,
        "valorMin": 50000,
        "valorMax": 10000000,
        "prazoMin": 24,
        "prazoMax": 84,
        "taxaJurosAnualNominal": 23.76,
        "valorMinPrestacao": 200,
        "idadeMax": 69,
        "idadePrazoMax": 74,
        "codSeguradora": 27,
        "codSeguradoraDFI": 27,
        "codApolice": 27,
        "codApoliceDFI": 27,
        "codSeguradora2": 27,
        "codSeguradora2DFI": 27,
        "codApolice2": 27,
        "codApolice2DFI": 27,
        "ltv": 50,
        "comprometimentoRenda": 30,
        "itbi": false,
        "iof": true,
        "indice": null,
        "ltvTotalOperacao": true,
        "taxaAdministracao": 0
      }
    },
    "371": {
      "id": "371",
      "group": "OPER",
      "name": "371 - CREDFLEX LINHA VERDE PRE 1,98%",
      "level": 6,
      "path": "ACI.CRE.2DN.ENE.PF4.A13.371",
      "type": "list",
      "rules": {
        "imovelMax": 15000000,
        "valorMin": 50000,
        "valorMax": 10000000,
        "prazoMin": 24,
        "prazoMax": 84,
        "taxaJurosAnualNominal": 23.76,
        "valorMinPrestacao": 200,
        "idadeMax": 69,
        "idadePrazoMax": 74,
        "codSeguradora": 27,
        "codSeguradoraDFI": 27,
        "codApolice": 27,
        "codApoliceDFI": 27,
        "codSeguradora2": 27,
        "codSeguradora2DFI": 27,
        "codApolice2": 27,
        "codApolice2DFI": 27,
        "ltv": 50,
        "comprometimentoRenda": 30,
        "itbi": false,
        "iof": true,
        "indice": null,
        "ltvTotalOperacao": true,
        "taxaAdministracao": 0
      }
    },
    "372": {
      "id": "372",
      "group": "OPER",
      "name": "372 - CREDFLEX PRE 1,90%",
      "level": 6,
      "path": "ACI.CRE.1DS.EDE.PF2.A05.372",
      "type": "list",
      "rules": {
        "imovelMax": 20000000,
        "valorMin": 50000,
        "valorMax": 10000000,
        "prazoMin": 24,
        "prazoMax": 84,
        "taxaJurosAnualNominal": 22.8,
        "valorMinPrestacao": 200,
        "idadeMax": 69,
        "idadePrazoMax": 74,
        "codSeguradora": 27,
        "codSeguradoraDFI": 27,
        "codApolice": 27,
        "codApoliceDFI": 27,
        "codSeguradora2": 27,
        "codSeguradora2DFI": 27,
        "codApolice2": 27,
        "codApolice2DFI": 27,
        "ltv": 50,
        "comprometimentoRenda": 30,
        "itbi": false,
        "iof": true,
        "indice": null,
        "ltvTotalOperacao": true,
        "taxaAdministracao": 0
      }
    },
    "373": {
      "id": "373",
      "group": "OPER",
      "name": "373 - CREDFLEX LINHA VERDE PRE 1,90%",
      "level": 6,
      "path": "ACI.CRE.1DS.EDE.PF2.A05.373",
      "type": "list",
      "rules": {
        "imovelMax": 15000000,
        "valorMin": 50000,
        "valorMax": 10000000,
        "prazoMin": 24,
        "prazoMax": 84,
        "taxaJurosAnualNominal": 22.8,
        "valorMinPrestacao": 200,
        "idadeMax": 69,
        "idadePrazoMax": 74,
        "codSeguradora": 27,
        "codSeguradoraDFI": 27,
        "codApolice": 27,
        "codApoliceDFI": 27,
        "codSeguradora2": 27,
        "codSeguradora2DFI": 27,
        "codApolice2": 27,
        "codApolice2DFI": 27,
        "ltv": 50,
        "comprometimentoRenda": 30,
        "itbi": false,
        "iof": true,
        "indice": null,
        "ltvTotalOperacao": true,
        "taxaAdministracao": 0
      }
    },
    "386": {
      "id": "386",
      "group": "OPER",
      "name": "386 - CREDFLEX POS IPCA 1,50% SAC",
      "level": 6,
      "path": "ACI.CRE.2DN.ENO.PF3.A10.386",
      "type": "list",
      "rules": {
        "imovelMax": 15000000,
        "valorMin": 50000,
        "valorMax": 10000000,
        "prazoMin": 24,
        "prazoMax": 180,
        "taxaJurosAnualNominal": 18,
        "valorMinPrestacao": 200,
        "idadeMax": 69,
        "idadePrazoMax": 74,
        "codSeguradora": 27,
        "codSeguradoraDFI": 27,
        "codApolice": 27,
        "codApoliceDFI": 27,
        "codSeguradora2": 27,
        "codSeguradora2DFI": 27,
        "codApolice2": 27,
        "codApolice2DFI": 27,
        "ltv": 50,
        "comprometimentoRenda": 30,
        "itbi": false,
        "iof": true,
        "indice": 204,
        "ltvTotalOperacao": true,
        "taxaAdministracao": 0
      }
    },
    "387": {
      "id": "387",
      "group": "OPER",
      "name": "387 - CREDFLEX LINHA VERDE IPCA 1,50% SAC",
      "level": 6,
      "path": "ACI.CRE.2DN.ENO.PF3.A10.387",
      "type": "list",
      "rules": {
        "imovelMax": 15000000,
        "valorMin": 50000,
        "valorMax": 10000000,
        "prazoMin": 24,
        "prazoMax": 180,
        "taxaJurosAnualNominal": 18,
        "valorMinPrestacao": 200,
        "idadeMax": 69,
        "idadePrazoMax": 74,
        "codSeguradora": 27,
        "codSeguradoraDFI": 27,
        "codApolice": 27,
        "codApoliceDFI": 27,
        "codSeguradora2": 27,
        "codSeguradora2DFI": 27,
        "codApolice2": 27,
        "codApolice2DFI": 27,
        "ltv": 50,
        "comprometimentoRenda": 30,
        "itbi": false,
        "iof": true,
        "indice": 204,
        "ltvTotalOperacao": true,
        "taxaAdministracao": 0
      }
    },
    "388": {
      "id": "388",
      "group": "OPER",
      "name": "388 - CREDFLEX POS IPCA 1,40% SAC",
      "level": 6,
      "path": "ACI.CRE.1DS.EDO.PF1.A02.388",
      "type": "list",
      "rules": {
        "imovelMax": 20000000,
        "valorMin": 50000,
        "valorMax": 10000000,
        "prazoMin": 24,
        "prazoMax": 180,
        "taxaJurosAnualNominal": 16.8,
        "valorMinPrestacao": 200,
        "idadeMax": 69,
        "idadePrazoMax": 74,
        "codSeguradora": 27,
        "codSeguradoraDFI": 27,
        "codApolice": 27,
        "codApoliceDFI": 27,
        "codSeguradora2": 27,
        "codSeguradora2DFI": 27,
        "codApolice2": 27,
        "codApolice2DFI": 27,
        "ltv": 50,
        "comprometimentoRenda": 30,
        "itbi": false,
        "iof": true,
        "indice": 204,
        "ltvTotalOperacao": true,
        "taxaAdministracao": 0
      }
    },
    "389": {
      "id": "389",
      "group": "OPER",
      "name": "389 - CREDFLEX LINHA VERDE IPCA 1,40% SAC",
      "level": 6,
      "path": "ACI.CRE.1DS.EDO.PF1.A02.389",
      "type": "list",
      "rules": {
        "imovelMax": 15000000,
        "valorMin": 50000,
        "valorMax": 10000000,
        "prazoMin": 24,
        "prazoMax": 180,
        "taxaJurosAnualNominal": 16.8,
        "valorMinPrestacao": 200,
        "idadeMax": 69,
        "idadePrazoMax": 74,
        "codSeguradora": 27,
        "codSeguradoraDFI": 27,
        "codApolice": 27,
        "codApoliceDFI": 27,
        "codSeguradora2": 27,
        "codSeguradora2DFI": 27,
        "codApolice2": 27,
        "codApolice2DFI": 27,
        "ltv": 50,
        "comprometimentoRenda": 30,
        "itbi": false,
        "iof": true,
        "indice": 204,
        "ltvTotalOperacao": true,
        "taxaAdministracao": 0
      }
    },
    "420": {
      "id": "420",
      "group": "OPER",
      "name": "420 - CREDCASA IPCA 1.40% PF IMOVEL COMERCIAL SAC - 240",
      "level": 6,
      "path": "ACI.CRA.3DS.ADO.PF5.A18.420",
      "type": "list",
      "rules": {
        "imovelMax": 15000000,
        "valorMin": 50000,
        "valorMax": 10000000,
        "prazoMin": 24,
        "prazoMax": 240,
        "taxaJurosAnualNominal": 16.8,
        "valorMinPrestacao": 200,
        "idadeMax": 69,
        "idadePrazoMax": 74,
        "codSeguradora": 27,
        "codSeguradoraDFI": 27,
        "codApolice": 27,
        "codApoliceDFI": 27,
        "codSeguradora2": 27,
        "codSeguradora2DFI": 27,
        "codApolice2": 27,
        "codApolice2DFI": 27,
        "ltv": 70,
        "comprometimentoRenda": 30,
        "itbi": true,
        "iof": true,
        "indice": 204,
        "ltvTotalOperacao": true,
        "taxaAdministracao": 0
      }
    },
    "429": {
      "id": "429",
      "group": "OPER",
      "name": "429 - CREDFLEX PJ - PRE 1,98%",
      "level": 6,
      "path": "ACI.CRE.2DN.ENE.P12.A45.429",
      "type": "list",
      "rules": {
        "imovelMax": 25000000,
        "valorMin": 50000,
        "valorMax": 12000000,
        "prazoMin": 24,
        "prazoMax": 84,
        "taxaJurosAnualNominal": 23.76,
        "valorMinPrestacao": 200,
        "idadeMax": 69,
        "idadePrazoMax": 74,
        "codSeguradora": 27,
        "codSeguradoraDFI": 27,
        "codApolice": 27,
        "codApoliceDFI": 27,
        "codSeguradora2": 27,
        "codSeguradora2DFI": 27,
        "codApolice2": 27,
        "codApolice2DFI": 27,
        "ltv": 50,
        "comprometimentoRenda": 30,
        "itbi": false,
        "iof": true,
        "indice": null,
        "ltvTotalOperacao": true,
        "taxaAdministracao": 25
      }
    },
    "430": {
      "id": "430",
      "group": "OPER",
      "name": "430 - CREDFLEX PJ POS IPCA 1,50% SAC",
      "level": 6,
      "path": "ACI.CRE.2DN.ENO.P11.A44.430",
      "type": "list",
      "rules": {
        "imovelMax": 25000000,
        "valorMin": 50000,
        "valorMax": 12000000,
        "prazoMin": 24,
        "prazoMax": 180,
        "taxaJurosAnualNominal": 18,
        "valorMinPrestacao": 200,
        "idadeMax": 69,
        "idadePrazoMax": 74,
        "codSeguradora": 27,
        "codSeguradoraDFI": 27,
        "codApolice": 27,
        "codApoliceDFI": 27,
        "codSeguradora2": 27,
        "codSeguradora2DFI": 27,
        "codApolice2": 27,
        "codApolice2DFI": 27,
        "ltv": 50,
        "comprometimentoRenda": 30,
        "itbi": false,
        "iof": true,
        "indice": 204,
        "ltvTotalOperacao": true,
        "taxaAdministracao": 25
      }
    },
    "435": {
      "id": "435",
      "group": "OPER",
      "name": "435 - CREDCASA ESPECIAL  PF 0,949% IPCA SAC 240",
      "level": 6,
      "path": "ACI.CRA.3DS.ADO.PF5.A18.435",
      "type": "list",
      "rules": {
        "imovelMax": 15000000,
        "valorMin": 50000,
        "valorMax": 10000000,
        "prazoMin": 24,
        "prazoMax": 240,
        "taxaJurosAnualNominal": 11.386552,
        "valorMinPrestacao": 200,
        "idadeMax": 69,
        "idadePrazoMax": 74,
        "codSeguradora": 27,
        "codSeguradoraDFI": 27,
        "codApolice": 27,
        "codApoliceDFI": 27,
        "codSeguradora2": 27,
        "codSeguradora2DFI": 27,
        "codApolice2": 27,
        "codApolice2DFI": 27,
        "ltv": 70,
        "comprometimentoRenda": 30,
        "itbi": true,
        "iof": false,
        "indice": 204,
        "ltvTotalOperacao": true,
        "taxaAdministracao": 0
      }
    },
    "436": {
      "id": "436",
      "group": "OPER",
      "name": "436 - CREDCASA PREMIUM PF POS IPCA 0,875% SAC 240",
      "level": 6,
      "path": "ACI.CRA.3DS.ADO.PF5.A18.436",
      "type": "list",
      "rules": {
        "imovelMax": 15000000,
        "valorMin": 50000,
        "valorMax": 10000000,
        "prazoMin": 24,
        "prazoMax": 240,
        "taxaJurosAnualNominal": 10.5,
        "valorMinPrestacao": 200,
        "idadeMax": 69,
        "idadePrazoMax": 74,
        "codSeguradora": 27,
        "codSeguradoraDFI": 27,
        "codApolice": 27,
        "codApoliceDFI": 27,
        "codSeguradora2": 27,
        "codSeguradora2DFI": 27,
        "codApolice2": 27,
        "codApolice2DFI": 27,
        "ltv": 70,
        "comprometimentoRenda": 30,
        "itbi": true,
        "iof": false,
        "indice": 204,
        "ltvTotalOperacao": true,
        "taxaAdministracao": 0
      }
    },
    "437": {
      "id": "437",
      "group": "OPER",
      "name": "437 - CREDFLEX PREMIUM POS IPCA 1,29% SAC",
      "level": 6,
      "path": "ACI.CRE.1DS.EDO.PF1.A02.437",
      "type": "list",
      "rules": {
        "imovelMax": 10000000,
        "valorMin": 50000,
        "valorMax": 10000000,
        "prazoMin": 24,
        "prazoMax": 180,
        "taxaJurosAnualNominal": 15.48,
        "valorMinPrestacao": 200,
        "idadeMax": 69,
        "idadePrazoMax": 74,
        "codSeguradora": 27,
        "codSeguradoraDFI": 27,
        "codApolice": 27,
        "codApoliceDFI": 27,
        "codSeguradora2": 27,
        "codSeguradora2DFI": 27,
        "codApolice2": 27,
        "codApolice2DFI": 27,
        "ltv": 40,
        "comprometimentoRenda": 30,
        "itbi": false,
        "iof": true,
        "indice": 204,
        "ltvTotalOperacao": true,
        "taxaAdministracao": 0
      }
    },
    "438": {
      "id": "438",
      "group": "OPER",
      "name": "438 - CREDCASA ESP COMERCIAL POS IPCA 0,949% SAC",
      "level": 6,
      "path": "ACI.CRA.3DS.ADO.PF5.A18.438",
      "type": "list",
      "rules": {
        "imovelMax": 15000000,
        "valorMin": 50000,
        "valorMax": 10000000,
        "prazoMin": 24,
        "prazoMax": 240,
        "taxaJurosAnualNominal": 11.386552,
        "valorMinPrestacao": 200,
        "idadeMax": 69,
        "idadePrazoMax": 74,
        "codSeguradora": 27,
        "codSeguradoraDFI": 27,
        "codApolice": 27,
        "codApoliceDFI": 27,
        "codSeguradora2": 27,
        "codSeguradora2DFI": 27,
        "codApolice2": 27,
        "codApolice2DFI": 27,
        "ltv": 70,
        "comprometimentoRenda": 30,
        "itbi": true,
        "iof": true,
        "indice": 204,
        "ltvTotalOperacao": true,
        "taxaAdministracao": 0
      }
    },
    "449": {
      "id": "449",
      "group": "OPER",
      "name": "449 - CREDFLEX PJ - PRE 1.90%",
      "level": 6,
      "path": "ACI.CRE.1DS.EDE.PJS.A49.449",
      "type": "list",
      "rules": {
        "imovelMax": 25000000,
        "valorMin": 50000,
        "valorMax": 12000000,
        "prazoMin": 24,
        "prazoMax": 84,
        "taxaJurosAnualNominal": 22.8,
        "valorMinPrestacao": 200,
        "idadeMax": 69,
        "idadePrazoMax": 74,
        "codSeguradora": 27,
        "codSeguradoraDFI": 27,
        "codApolice": 27,
        "codApoliceDFI": 27,
        "codSeguradora2": 27,
        "codSeguradora2DFI": 27,
        "codApolice2": 27,
        "codApolice2DFI": 27,
        "ltv": 50,
        "comprometimentoRenda": 30,
        "itbi": false,
        "iof": true,
        "indice": null,
        "ltvTotalOperacao": true,
        "taxaAdministracao": 25
      }
    },
    "450": {
      "id": "450",
      "group": "OPER",
      "name": "450 - CREDFLEX PJ POS IPCA - PRE 1.40%",
      "level": 6,
      "path": "ACI.CRE.1DS.EDO.PJY.A50.450",
      "type": "list",
      "rules": {
        "imovelMax": 25000000,
        "valorMin": 50000,
        "valorMax": 12000000,
        "prazoMin": 24,
        "prazoMax": 180,
        "taxaJurosAnualNominal": 16.8,
        "valorMinPrestacao": 200,
        "idadeMax": 69,
        "idadePrazoMax": 74,
        "codSeguradora": 27,
        "codSeguradoraDFI": 27,
        "codApolice": 27,
        "codApoliceDFI": 27,
        "codSeguradora2": 27,
        "codSeguradora2DFI": 27,
        "codApolice2": 27,
        "codApolice2DFI": 27,
        "ltv": 50,
        "comprometimentoRenda": 30,
        "itbi": false,
        "iof": true,
        "indice": 204,
        "ltvTotalOperacao": true,
        "taxaAdministracao": 25
      }
    },
    "451": {
      "id": "451",
      "group": "OPER",
      "name": "451 - CREDCASA POS IPCA 1% SAC PJ",
      "level": 6,
      "path": "ACI.CRA.3DS.ADO.PJ5.A20.451",
      "type": "list",
      "rules": {
        "imovelMax": 25000000,
        "valorMin": 50000,
        "valorMax": 12000000,
        "prazoMin": 24,
        "prazoMax": 240,
        "taxaJurosAnualNominal": 12,
        "valorMinPrestacao": 200,
        "idadeMax": 69,
        "idadePrazoMax": 74,
        "codSeguradora": 27,
        "codSeguradoraDFI": 27,
        "codApolice": 27,
        "codApoliceDFI": 27,
        "codSeguradora2": 27,
        "codSeguradora2DFI": 27,
        "codApolice2": 27,
        "codApolice2DFI": 27,
        "ltv": 70,
        "comprometimentoRenda": 30,
        "itbi": true,
        "iof": true,
        "indice": 204,
        "ltvTotalOperacao": true,
        "taxaAdministracao": 25
      }
    },
    "452": {
      "id": "452",
      "group": "OPER",
      "name": "452 - CREDCASA DESLIGAMENTO POS IPCA 1% SAC PJ",
      "level": 6,
      "path": "ACI.CRA.3DS.ADO.PJ5.A20.452",
      "type": "list",
      "rules": {
        "imovelMax": 25000000,
        "valorMin": 50000,
        "valorMax": 12000000,
        "prazoMin": 24,
        "prazoMax": 240,
        "taxaJurosAnualNominal": 12,
        "valorMinPrestacao": 200,
        "idadeMax": 69,
        "idadePrazoMax": 74,
        "codSeguradora": 27,
        "codSeguradoraDFI": 27,
        "codApolice": 27,
        "codApoliceDFI": 27,
        "codSeguradora2": 27,
        "codSeguradora2DFI": 27,
        "codApolice2": 27,
        "codApolice2DFI": 27,
        "ltv": 70,
        "comprometimentoRenda": 30,
        "itbi": true,
        "iof": true,
        "indice": 204,
        "ltvTotalOperacao": true,
        "taxaAdministracao": 25
      }
    },
    "488": {
      "id": "488",
      "group": "OPER",
      "name": "488 - CREDCASA SFH POS TR 0.875% SAC",
      "level": 6,
      "path": "ACI.CCF.4DS.POF.P15.R10.488",
      "type": "list",
      "rules": {
        "imovelMax": 800000,
        "valorMin": 30000,
        "valorMax": 800000,
        "prazoMin": 24,
        "prazoMax": 240,
        "taxaJurosAnualNominal": 10.5,
        "valorMinPrestacao": 200,
        "idadeMax": 69,
        "idadePrazoMax": 74,
        "codSeguradora": 31,
        "codSeguradoraDFI": 31,
        "codApolice": 31,
        "codApoliceDFI": 31,
        "codSeguradora2": 31,
        "codSeguradora2DFI": 31,
        "codApolice2": 31,
        "codApolice2DFI": 31,
        "ltv": 70,
        "comprometimentoRenda": 30,
        "itbi": true,
        "iof": false,
        "indice": 100,
        "ltvTotalOperacao": true,
        "taxaAdministracao": 25
      }
    },
    "490": {
      "id": "490",
      "group": "OPER",
      "name": "490 - CREDCASA SFH POS TR 0.875% SAC",
      "level": 6,
      "path": "ACI.CCS.5DS.POV.P16.R07.490",
      "type": "list",
      "rules": {
        "imovelMax": 950000,
        "valorMin": 30000,
        "valorMax": 950000,
        "prazoMin": 24,
        "prazoMax": 240,
        "taxaJurosAnualNominal": 10.5,
        "valorMinPrestacao": 200,
        "idadeMax": 69,
        "idadePrazoMax": 74,
        "codSeguradora": 31,
        "codSeguradoraDFI": 31,
        "codApolice": 31,
        "codApoliceDFI": 31,
        "codSeguradora2": 31,
        "codSeguradora2DFI": 31,
        "codApolice2": 31,
        "codApolice2DFI": 31,
        "ltv": 70,
        "comprometimentoRenda": 30,
        "itbi": true,
        "iof": false,
        "indice": 100,
        "ltvTotalOperacao": true,
        "taxaAdministracao": 25
      }
    },
    "492": {
      "id": "492",
      "group": "OPER",
      "name": "492 - CREDCASA POS TR 0.875% SAC",
      "level": 6,
      "path": "ACI.CRA.3DS.ADO.PF5.A18.492",
      "type": "list",
      "rules": {
        "imovelMax": 900000000,
        "valorMin": 30000,
        "valorMax": 900000000,
        "prazoMin": 24,
        "prazoMax": 240,
        "taxaJurosAnualNominal": 10.5,
        "valorMinPrestacao": 200,
        "idadeMax": 69,
        "idadePrazoMax": 74,
        "codSeguradora": 31,
        "codSeguradoraDFI": 31,
        "codApolice": 33,
        "codApoliceDFI": 33,
        "codSeguradora2": 31,
        "codSeguradora2DFI": 31,
        "codApolice2": 33,
        "codApolice2DFI": 33,
        "ltv": 70,
        "comprometimentoRenda": 30,
        "itbi": true,
        "iof": false,
        "indice": 100,
        "ltvTotalOperacao": true,
        "taxaAdministracao": 25
      }
    },
    "493": {
      "id": "493",
      "group": "OPER",
      "name": "493 - CREDCASA RESIDENCIAL MOURADUBEUX IPCA 0.908%",
      "level": 6,
      "path": "ACI.CRA.3DS.ADO.PF5.A18.493",
      "type": "list",
      "rules": {
        "imovelMax": 15000000,
        "valorMin": 50000,
        "valorMax": 10000000,
        "prazoMin": 24,
        "prazoMax": 240,
        "taxaJurosAnualNominal": 10.9,
        "valorMinPrestacao": 200,
        "idadeMax": 69,
        "idadePrazoMax": 74,
        "codSeguradora": 27,
        "codSeguradoraDFI": 27,
        "codApolice": 27,
        "codApoliceDFI": 27,
        "codSeguradora2": 27,
        "codSeguradora2DFI": 27,
        "codApolice2": 27,
        "codApolice2DFI": 27,
        "ltv": 70,
        "comprometimentoRenda": 30,
        "itbi": true,
        "iof": false,
        "indice": 204,
        "ltvTotalOperacao": true,
        "taxaAdministracao": 0
      }
    },
    "494": {
      "id": "494",
      "group": "OPER",
      "name": "494 - CREDCASA COMERCIAL MOURADUBEUX IPCA 0.908%",
      "level": 6,
      "path": "ACI.CRA.3DS.ADO.PF5.A18.494",
      "type": "list",
      "rules": {
        "imovelMax": 15000000,
        "valorMin": 50000,
        "valorMax": 10000000,
        "prazoMin": 24,
        "prazoMax": 240,
        "taxaJurosAnualNominal": 10.9,
        "valorMinPrestacao": 200,
        "idadeMax": 69,
        "idadePrazoMax": 74,
        "codSeguradora": 27,
        "codSeguradoraDFI": 27,
        "codApolice": 27,
        "codApoliceDFI": 27,
        "codSeguradora2": 27,
        "codSeguradora2DFI": 27,
        "codApolice2": 27,
        "codApolice2DFI": 27,
        "ltv": 70,
        "comprometimentoRenda": 30,
        "itbi": true,
        "iof": true,
        "indice": 204,
        "ltvTotalOperacao": true,
        "taxaAdministracao": 0
      }
    },
    "495": {
      "id": "495",
      "group": "OPER",
      "name": "495 - CREDCASA RESIDENCIAL MOURADUBEUX PJ IPCA 0.908%",
      "level": 6,
      "path": "ACI.CRA.3DS.ADO.PJ5.A20.495",
      "type": "list",
      "rules": {
        "imovelMax": 15000000,
        "valorMin": 50000,
        "valorMax": 10000000,
        "prazoMin": 24,
        "prazoMax": 240,
        "taxaJurosAnualNominal": 10.9,
        "valorMinPrestacao": 200,
        "idadeMax": 69,
        "idadePrazoMax": 74,
        "codSeguradora": 27,
        "codSeguradoraDFI": 27,
        "codApolice": 27,
        "codApoliceDFI": 27,
        "codSeguradora2": 27,
        "codSeguradora2DFI": 27,
        "codApolice2": 27,
        "codApolice2DFI": 27,
        "ltv": 70,
        "comprometimentoRenda": 30,
        "itbi": true,
        "iof": true,
        "indice": 204,
        "ltvTotalOperacao": true,
        "taxaAdministracao": 25
      }
    },
    "496": {
      "id": "496",
      "group": "OPER",
      "name": "496 - CREDCASA COMERCIAL MOURADUBEUX PJ IPCA 0.908%",
      "level": 6,
      "path": "ACI.CRA.3DS.ADO.PJ5.A20.496",
      "type": "list",
      "rules": {
        "imovelMax": 15000000,
        "valorMin": 50000,
        "valorMax": 10000000,
        "prazoMin": 24,
        "prazoMax": 240,
        "taxaJurosAnualNominal": 10.9,
        "valorMinPrestacao": 200,
        "idadeMax": 69,
        "idadePrazoMax": 74,
        "codSeguradora": 27,
        "codSeguradoraDFI": 27,
        "codApolice": 27,
        "codApoliceDFI": 27,
        "codSeguradora2": 27,
        "codSeguradora2DFI": 27,
        "codApolice2": 27,
        "codApolice2DFI": 27,
        "ltv": 70,
        "comprometimentoRenda": 30,
        "itbi": true,
        "iof": true,
        "indice": 204,
        "ltvTotalOperacao": true,
        "taxaAdministracao": 25
      }
    }
  },
  "KEY_VERSION": "C0C6BB8A989F36E2408D38A6A1525CC5",
  "dateVersion": "2018-05-02 17:04:43.916-0300"
}