{
  "selGroups": {
    "PROD": {
      "type": "btn-group",
      "cols": 1,
      "options": [
        "credCASA",
        "credFLEX"
      ],
      "selectors": {
        "credCASA": [
          "CRA"
        ],
        "credFLEX": [
          "CRE"
        ]
      }
    },
    "DEBC": {
      "type": "switch",
      "cols": 2,
      "label": "Déb. Conta",
      "options": [
        "S",
        "N"
      ],
      "selectors": {
        "S": [
          "1DS",
          "3DS"
        ],
        "N": [
          "2DN",
          "4DN"
        ]
      }
    },
    "CORR": {
      "type": "btn-group",
      "cols": 2,
      "options": [
        "PRÉ",
        "PÓS"
      ],
      "selectors": {
        "PRÉ": [
          "ENE",
          "EDE"
        ],
        "PÓS": [
          "ENO",
          "EDO",
          "ANO",
          "ADO"
        ]
      }
    },
    "PESS": {
      "type": "btn-group",
      "cols": 2,
      "options": [
        "PJ",
        "PF"
      ],
      "selectors": {
        "PJ": [
          "P11",
          "P12",
          "PJY",
          "PJS",
          "PJ7",
          "PJ5"
        ],
        "PF": [
          "PF3",
          "PF4",
          "PF1",
          "PF2",
          "PF7",
          "PF5"
        ]
      }
    },
    "AMRT": {
      "type": "btn-group",
      "cols": 2,
      "options": [
        "SAC",
        "PRICE"
      ],
      "selectors": {
        "SAC": [
          "A10",
          "A44",
          "A50",
          "A02",
          "A28",
          "A26",
          "A20"
        ],
        "PRICE": [
          "A13",
          "A45",
          "A49",
          "A05"
        ]
      }
    }
  },
  "operations": {
    "386": {
      "name": "386 - CREDFLEX POS IPCA 1,50% SAC",
      "level": 6,
      "path": "ACI.CRE.2DN.ENO.PF3.A10.386",
      "group": "OPER",
      "type": "list",
      "label": ""
    },
    "387": {
      "name": "387 - CREDFLEX LINHA VERDE IPCA 1,50% SAC",
      "level": 6,
      "path": "ACI.CRE.2DN.ENO.PF3.A10.387",
      "group": "OPER",
      "type": "list",
      "label": ""
    },
    "430": {
      "name": "430 - CREDFLEX PJ POS IPCA 1,50% SAC",
      "level": 6,
      "path": "ACI.CRE.2DN.ENO.P11.A44.430",
      "group": "OPER",
      "type": "list",
      "label": ""
    },
    "370": {
      "name": "370 - CREDFLEX PRE 1,98%",
      "level": 6,
      "path": "ACI.CRE.2DN.ENE.PF4.A13.370",
      "group": "OPER",
      "type": "list",
      "label": ""
    },
    "371": {
      "name": "371 - CREDFLEX LINHA VERDE PRE 1,98%",
      "level": 6,
      "path": "ACI.CRE.2DN.ENE.PF4.A13.371",
      "group": "OPER",
      "type": "list",
      "label": ""
    },
    "429": {
      "name": "429 - CREDFLEX PJ - PRE 1,98%",
      "level": 6,
      "path": "ACI.CRE.2DN.ENE.P12.A45.429",
      "group": "OPER",
      "type": "list",
      "label": ""
    },
    "450": {
      "name": "450 - CREDFLEX PJ POS IPCA - PRE 1.40%",
      "level": 6,
      "path": "ACI.CRE.1DS.EDO.PJY.A50.450",
      "group": "OPER",
      "type": "list",
      "label": ""
    },
    "388": {
      "name": "388 - CREDFLEX POS IPCA 1,40% SAC",
      "level": 6,
      "path": "ACI.CRE.1DS.EDO.PF1.A02.388",
      "group": "OPER",
      "type": "list",
      "label": ""
    },
    "389": {
      "name": "389 - CREDFLEX LINHA VERDE IPCA 1,40% SAC",
      "level": 6,
      "path": "ACI.CRE.1DS.EDO.PF1.A02.389",
      "group": "OPER",
      "type": "list",
      "label": ""
    },
    "437": {
      "name": "437 - CREDFLEX PREMIUM POS IPCA 1,29% SAC",
      "level": 6,
      "path": "ACI.CRE.1DS.EDO.PF1.A02.437",
      "group": "OPER",
      "type": "list",
      "label": ""
    },
    "449": {
      "name": "449 - CREDFLEX PJ - PRE 1.90%",
      "level": 6,
      "path": "ACI.CRE.1DS.EDE.PJS.A49.449",
      "group": "OPER",
      "type": "list",
      "label": ""
    },
    "372": {
      "name": "372 - CREDFLEX PRE 1,90%",
      "level": 6,
      "path": "ACI.CRE.1DS.EDE.PF2.A05.372",
      "group": "OPER",
      "type": "list",
      "label": ""
    },
    "373": {
      "name": "373 - CREDFLEX LINHA VERDE PRE 1,90%",
      "level": 6,
      "path": "ACI.CRE.1DS.EDE.PF2.A05.373",
      "group": "OPER",
      "type": "list",
      "label": ""
    },
    "324": {
      "name": "324 - CREDCASA POS IPCA 1,10% SAC PJ 240",
      "level": 6,
      "path": "ACI.CRA.4DN.ANO.PJ7.A28.324",
      "group": "OPER",
      "type": "list",
      "label": ""
    },
    "342": {
      "name": "342 - CREDCASA DESLIGAMENTO POS IPCA 1,10% SAC PJ 240 ",
      "level": 6,
      "path": "ACI.CRA.4DN.ANO.PJ7.A28.342",
      "group": "OPER",
      "type": "list",
      "label": ""
    },
    "320": {
      "name": "320 - CREDCASA POS IPCA 1,10% SAC 240",
      "level": 6,
      "path": "ACI.CRA.4DN.ANO.PF7.A26.320",
      "group": "OPER",
      "type": "list",
      "label": ""
    },
    "323": {
      "name": "323 - CREDCASA IPCA 1,10% PF IMOVEL COMERCIAL SAC 240",
      "level": 6,
      "path": "ACI.CRA.4DN.ANO.PF7.A26.323",
      "group": "OPER",
      "type": "list",
      "label": ""
    },
    "338": {
      "name": "338 - CREDCASA DESLIGAMENTO POS IPCA 1,10% SAC 240",
      "level": 6,
      "path": "ACI.CRA.4DN.ANO.PF7.A26.338",
      "group": "OPER",
      "type": "list",
      "label": ""
    },
    "341": {
      "name": "341 - CREDCASA DESLIG IPCA 1,10% PF IMOVEL COMERCIAL SAC 240",
      "level": 6,
      "path": "ACI.CRA.4DN.ANO.PF7.A26.341",
      "group": "OPER",
      "type": "list",
      "label": ""
    },
    "451": {
      "name": "451 - CREDCASA POS IPCA 1% SAC PJ",
      "level": 6,
      "path": "ACI.CRA.3DS.ADO.PJ5.A20.451",
      "group": "OPER",
      "type": "list",
      "label": ""
    },
    "452": {
      "name": "452 - CREDCASA DESLIGAMENTO POS IPCA 1% SAC PJ",
      "level": 6,
      "path": "ACI.CRA.3DS.ADO.PJ5.A20.452",
      "group": "OPER",
      "type": "list",
      "label": ""
    },
    "252": {
      "name": "252 - CREDCASA POS IPCA 1% SAC - 240",
      "level": 6,
      "path": "ACI.CRA.3DS.ADO.PF5.A18.252",
      "group": "OPER",
      "type": "list",
      "label": ""
    },
    "255": {
      "name": "255 - CREDCASA IPCA 1% PF IMOVEL COMERCIAL SAC - 240",
      "level": 6,
      "path": "ACI.CRA.3DS.ADO.PF5.A18.255",
      "group": "OPER",
      "type": "list",
      "label": ""
    },
    "283": {
      "name": "283 - CREDCASA DESLIGAMENTO POS IPCA 1% SAC 240",
      "level": 6,
      "path": "ACI.CRA.3DS.ADO.PF5.A18.283",
      "group": "OPER",
      "type": "list",
      "label": ""
    },
    "286": {
      "name": "286-CREDCASA DESLIGAMENTO IPCA 1%PF IMOVEL COMERCIAL SAC 240",
      "level": 6,
      "path": "ACI.CRA.3DS.ADO.PF5.A18.286",
      "group": "OPER",
      "type": "list",
      "label": ""
    },
    "420": {
      "name": "420 - CREDCASA IPCA 1.40% PF IMOVEL COMERCIAL SAC - 240",
      "level": 6,
      "path": "ACI.CRA.3DS.ADO.PF5.A18.420",
      "group": "OPER",
      "type": "list",
      "label": ""
    },
    "435": {
      "name": "435 - CREDCASA ESPECIAL  PF 0,949% IPCA SAC 240",
      "level": 6,
      "path": "ACI.CRA.3DS.ADO.PF5.A18.435",
      "group": "OPER",
      "type": "list",
      "label": ""
    },
    "436": {
      "name": "436 - CREDCASA PREMIUM PF POS IPCA 0,835% SAC 240",
      "level": 6,
      "path": "ACI.CRA.3DS.ADO.PF5.A18.436",
      "group": "OPER",
      "type": "list",
      "label": ""
    },
    "438": {
      "name": "438 - CREDCASA ESP COMERCIAL POS IPCA 0,949% SAC",
      "level": 6,
      "path": "ACI.CRA.3DS.ADO.PF5.A18.438",
      "group": "OPER",
      "type": "list",
      "label": ""
    }
  },
  "version": "aer345rfdf09oisckjhns0d9fkljnvds90"
}